25 Datos ordenados | R para Ciencia de Datos
…
Puedes representar la misma información de múltiples formas. El ejemplo a continuación muestra los mismos datos ordenados de cuatro manera distintas. Cada dataset muestra los mismos valores de cuatro variables pais, anio, poblacion y casos, pero cada conjunto de datos organiza los valores de forma distinta.

tabla1
#> # A tibble: 6 x 4
#>   pais        anio  casos  poblacion
#>   <chr>      <int>  <int>      <int>
#> 1 Afganistán  1999    745   19987071
#> 2 Afganistán  2000   2666   20595360
#> 3 Brasil      1999  37737  172006362
#> 4 Brasil      2000  80488  174504898
#> 5 China       1999 212258 1272915272
#> 6 China       2000 213766 1280428583
tabla2
#> # A tibble: 12 x 4
#>   pais        anio tipo         cuenta
#>   <chr>      <int> <chr>         <int>
#> 1 Afganistán  1999 casos           745
#> 2 Afganistán  1999 población  19987071
#> 3 Afganistán  2000 casos          2666
#> 4 Afganistán  2000 población  20595360
#> 5 Brasil      1999 casos         37737
#> 6 Brasil      1999 población 172006362
#> # … with 6 more rows
…
25.3.2 Spread

Extender (spread) es lo opuesto de gather. Lo usas cuando una observación aparece en múltiples filas. Por ejemplo, toma la tabla tabla2: una observación es un país en un año, pero cada observación aparece en dos filas.

tabla2
#> # A tibble: 12 x 4
#>   pais        anio tipo         cuenta
#>   <chr>      <int> <chr>         <int>
#> 1 Afganistán  1999 casos           745
#> 2 Afganistán  1999 población  19987071
#> 3 Afganistán  2000 casos          2666
#> 4 Afganistán  2000 población  20595360
#> 5 Brasil      1999 casos         37737
#> 6 Brasil      1999 población 172006362
#> # … with 6 more rows
…
Otra herramienta importante para hacer explícitos los valores faltantes en datos ordenados es complete():

acciones %>%
  complete(anio, trimestre)
#> # A tibble: 8 x 3
#>    anio trimestre retorno
#>   <dbl>     <dbl>   <dbl>
#> 1  2015         1    1.88
#> 2  2015         2    0.59
#> 3  2015         3    0.35
#> 4  2015         4   NA   
#> 5  2016         1   NA   
#> 6  2016         2    0.92
#> # … with 2 more rows
…
25.5.1 Ejercicios

Compara y contrasta el argumento fill que se usa en spread() con complete().

¿Qué hace el argumento de dirección en fill()?

25.6 Estudio de caso

Para finalizar el capítulo, combinemos todo lo que aprendiste para atacar un problema real de ordenamiento de datos. El dataset datos::oms contiene datos de tuberculosis (TB) detallados por año, país, edad, sexo y método de diagnóstico. Los datos provienen del Informe de Tuberculosis de la Organización Mundial de la Salud 2014, disponible en http://www.who.int/tb/country/data/download/en/.

Existe abundante información epidemiológica en este dataset, pero es complicado trabajar con estos datos tal como son entregados:

oms
#> # A tibble: 7,240 x 60
#>   pais  iso2  iso3   anio nuevos_fpp_h014 nuevos_fpp_h1524 nuevos_fpp_h2534
#>   <chr> <chr> <chr> <int>           <int>            <int>            <int>
#> 1 Afgh… AF    AFG    1980              NA               NA               NA
#> 2 Afgh… AF    AFG    1981              NA               NA               NA
#> 3 Afgh… AF    AFG    1982              NA               NA               NA
#> 4 Afgh… AF    AFG    1983              NA               NA               NA
#> 5 Afgh… AF    AFG    1984              NA               NA               NA
#> 6 Afgh… AF    AFG    1985              NA               NA               NA
#> # … with 7,234 more rows, and 53 more variables: nuevos_fpp_h3534 <int>,
#> #   nuevos_fpp_h4554 <int>, nuevos_fpp_h5564 <int>, nuevos_fpp_h65 <int>,
#> #   nuevos_fpp_m014 <int>, nuevos_fpp_m1524 <int>, nuevos_fpp_m2534 <int>,
#> #   nuevos_fpp_m3534 <int>, nuevos_fpp_m4554 <int>,
#> #   nuevos_fpp_m5564 <int>, nuevos_fpp_m65 <int>, nuevos_fpn_h014 <int>,
#> #   nuevos_fpn_h1524 <int>, nuevos_fpn_h2534 <int>,
#> #   nuevos_fpn_h3534 <int>, nuevos_fpn_h4554 <int>,
#> #   nuevos_fpn_h5564 <int>, nuevos_fpn_h65 <int>, nuevos_fpn_m014 <int>,
#> #   nuevos_fpn_m1524 <int>, nuevos_fpn_m2534 <int>,
…
Podemos tener una noción de la estructura de los valores en la nueva columna llave si hacemos un conteo:

oms1 %>%
  count(llave)
#> # A tibble: 56 x 2
#>   llave               n
#>   <chr>           <int>
#> 1 nuevos_ep_h014   1038
#> 2 nuevos_ep_h1524  1026
#> 3 nuevos_ep_h2534  1020
#> 4 nuevos_ep_h3534  1024
#> 5 nuevos_ep_h4554  1020
#> 6 nuevos_ep_h5564  1015
#> # … with 50 more rows
…
