7 Factores | R para Ciencia de Datos
…
7.4.1 Ejercicios

Hay algunos números sospechosamente grandes en horas_tv. ¿Es la media un buen resumen?

Identifica, para cada factor en encuesta, si el orden de los niveles es arbitrario o responde a algún principio.

¿Por qué mover “No aplica” al inicio de los niveles lo llevó al final del gráfico?

7.5 Modificar los niveles de los factores

Más poderoso que cambiar el orden de los niveles es cambiar sus valores. Esto te permite clarificar etiquetas para publicación, y colapsar niveles para visualizaciones de alto nivel. La herramienta más general y más poderosa es fct_recode() (del inglés, recodificar factores). Ésta función te permite recodificar, o cambiar, el valor de cada nivel. Por ejemplo, toma la columna encuesta$partido:

encuesta %>% count(partido)
#> # A tibble: 10 x 2
#>   partido                           n
#>   <fct>                         <int>
#> 1 Sin respuesta                   154
#> 2 No sabe                           1
#> 3 Otro partido                    393
#> 4 Republicano duro               2314
#> 5 Republicano moderano           3032
#> 6 Independiente pro republicano  1791
#> # … with 4 more rows
…
encuesta %>%
  mutate(partido = fct_recode(partido,
    "Republicano duro" = "Republicano Acérrimo",
    "Republicano moderado" = "Republicado No Acérrimo",
    "Independiente pro republicano" = "Independiente, pro-Rep",
    "Independiente pro demócrata" = "Independiente, pro-Dem",
    "Demócrata moderado" = "Demócrata No Acérrimo",
    "Demócrata duro" = "Demócrata Acérrimo"
  )) %>%
  count(partido)
#> Warning: Unknown levels in `f`: Republicano Acérrimo, Republicado No
#> Acérrimo, Independiente, pro-Rep, Independiente, pro-Dem, Demócrata No
#> Acérrimo, Demócrata Acérrimo
#> # A tibble: 10 x 2
#>   partido                           n
#>   <fct>                         <int>
#> 1 Sin respuesta                   154
#> 2 No sabe                           1
#> 3 Otro partido                    393
#> 4 Republicano duro               2314
#> 5 Republicano moderano           3032
#> 6 Independiente pro republicano  1791
#> # … with 4 more rows
…
    "Republicano duro" = "Republicano Acérrimo",
    "Republicano moderado" = "Republicado No Acérrimo",
    "Independiente pro republicano" = "Independiente, pro-Rep",
    "Independiente pro demócrata" = "Independiente, pro-Dem",
    "Demócrata moderado" = "Demócrata No Acérrimo",
    "Demócrata duro" = "Demócrata Acérrimo",
    "Otro" = "Sin respuesta",
    "Otro" = "No sabe",
    "Otro" = "Otro partido"
  )) %>%
  count(partido)
#> Warning: Unknown levels in `f`: Republicano Acérrimo, Republicado No
#> Acérrimo, Independiente, pro-Rep, Independiente, pro-Dem, Demócrata No
#> Acérrimo, Demócrata Acérrimo
#> # A tibble: 8 x 2
#>   partido                           n
#>   <fct>                         <int>
#> 1 Otro                            548
#> 2 Republicano duro               2314
#> 3 Republicano moderano           3032
#> 4 Independiente pro republicano  1791
#> 5 Independiente                  4119
#> 6 Independiente pro democrata    2499
#> # … with 2 more rows
…
Si quieres colapsar muchos niveles, fct_collapse() (del inglés, colapsar factores) es una variante muy útil de fct_recode(). Para cada nueva variable, puedes proveer un vector de niveles viejos:

encuesta %>%
  mutate(partido = fct_collapse(partido,
    otro = c("Sin respuesta", "No sabe", "Otro partido"),
    republicano = c("Republicano Acérrimo", "Republicado No Acérrimo"),
    independiente = c("Independiente, pro-Rep", "Independiente", "Independiente, pro-Dem"),
    democrata = c("Demócrata No Acérrimo", "Demócrata Acérrimo")
  )) %>%
  count(partido)
#> Warning: Unknown levels in `f`: Republicano Acérrimo, Republicado No
#> Acérrimo, Independiente, pro-Rep, Independiente, pro-Dem, Demócrata No
#> Acérrimo, Demócrata Acérrimo
#> # A tibble: 8 x 2
#>   partido                           n
#>   <fct>                         <int>
#> 1 otro                            548
#> 2 Republicano duro               2314
#> 3 Republicano moderano           3032
#> 4 Independiente pro republicano  1791
#> 5 independiente                  4119
#> 6 Independiente pro democrata    2499
#> # … with 2 more rows
…
