22 R Markdown | R para Ciencia de Datos
…
En RStudio, puedes hacer clic en la opción "Knit with Parameters en el menú desplegable Knit para setear parámetros,renderizar y previsualizar en un un simple paso amigable para el usuario. Puedes personalizar el diálogo seteando otras opciones en el encabezado. Ver para mas detalles http://rmarkdown.rstudio.com/developer_parameterized_reports.html#parameter_user_interfaces.

De manera alternativa, si necesitas producir varios reportes parametrizados puedes incluir rmarkdown::render() con una lista de params:

rmarkdown::render("fuel-economy.Rmd", params = list(my_class = "suv"))

Esto es particularmente poderoso en conjuncion con purrr:pwalk(). El siguiente ejemplo crea un reporte para cada valor de class que se encuentra mpg. Primero creamos un data frame que tiene una fila para cada clase, dando el filename del reporte y los params:

reports <- tibble(
  class = unique(mpg$class),
  filename = stringr::str_c("fuel-economy-", class, ".html"),
  params = purrr::map(class, ~ list(my_class = .))
)
reports
#> # A tibble: 7 x 3
#>   class   filename                  params    
#>   <chr>   <chr>                     <list>    
#> 1 compact fuel-economy-compact.html <list [1]>
#> 2 midsize fuel-economy-midsize.html <list [1]>
#> 3 suv     fuel-economy-suv.html     <list [1]>
#> 4 2seater fuel-economy-2seater.html <list [1]>
#> 5 minivan fuel-economy-minivan.html <list [1]>
#> 6 pickup  fuel-economy-pickup.html  <list [1]>
#> # … with 1 more row
…
