26 Transformación de datos | R para Ciencia de Datos
…
El primer argumento es un data frame.

Los argumentos posteriores describen qué hacer con el data frame usando los nombres de las variables (sin comillas).

El resultado es un nuevo data frame.

En conjunto, estas propiedades hacen que sea fácil encadenar varios pasos simples para lograr un resultado complejo. Vamos a sumergirnos y ver cómo funcionan estos verbos.

26.2 Filtrar filas con filter()

filter() te permite filtrar un subconjunto de observaciones basadas en sus valores. El primer argumento es el nombre del data frame. El segundo y los siguientes argumentos son las expresiones que filtran el data frame. Por ejemplo, podemos seleccionar todos los vuelos del 1 de enero con:

filter(vuelos, mes == 1, dia == 1)
#> # A tibble: 842 x 19
#>    anio   mes   dia horario_salida salida_programa… atraso_salida
#>   <int> <int> <int>          <int>            <int>         <dbl>
#> 1  2013     1     1            517              515             2
#> 2  2013     1     1            533              529             4
#> 3  2013     1     1            542              540             2
#> 4  2013     1     1            544              545            -1
#> 5  2013     1     1            554              600            -6
#> 6  2013     1     1            554              558            -4
#> # … with 836 more rows, and 13 more variables: horario_llegada <int>,
#> #   llegada_programada <int>, atraso_llegada <dbl>, aerolinea <chr>,
#> #   vuelo <int>, codigo_cola <chr>, origen <chr>, destino <chr>,
#> #   tiempo_vuelo <dbl>, distancia <dbl>, hora <dbl>, minuto <dbl>,
#> #   fecha_hora <dttm>

Cuando ejecutas esa línea de código, dplyr ejecuta la operación de filtrado y devuelve un nuevo data frame. Las funciones dplyr nunca modifican sus entradas, por lo que si deseas guardar el resultado, necesitarás usar el operador de asignación, <-:

ene1 <- filter(vuelos, mes == 1, dia == 1)

R imprime los resultados o los guarda en una variable. Si deseas hacer ambas cosas, puedes escribir toda la línea entre paréntesis:

(dic25 <- filter(vuelos, mes == 12, dia == 25))
#> # A tibble: 719 x 19
#>    anio   mes   dia horario_salida salida_programa… atraso_salida
#>   <int> <int> <int>          <int>            <int>         <dbl>
#> 1  2013    12    25            456              500            -4
#> 2  2013    12    25            524              515             9
#> 3  2013    12    25            542              540             2
#> 4  2013    12    25            546              550            -4
#> 5  2013    12    25            556              600            -4
#> 6  2013    12    25            557              600            -3
#> # … with 713 more rows, and 13 more variables: horario_llegada <int>,
#> #   llegada_programada <int>, atraso_llegada <dbl>, aerolinea <chr>,
#> #   vuelo <int>, codigo_cola <chr>, origen <chr>, destino <chr>,
#> #   tiempo_vuelo <dbl>, distancia <dbl>, hora <dbl>, minuto <dbl>,
#> #   fecha_hora <dttm>
…
El último verbo clave es summarise() (de resumir en inglés). Se encarga de colapsar un data frame en una sola fila:

summarise(vuelos, atraso = mean(atraso_salida, na.rm = TRUE))
#> # A tibble: 1 x 1
#>   atraso
#>    <dbl>
#> 1   12.6

(Volveremos a lo que significa na.rm = TRUE en muy poco tiempo).

summarise() no es muy útil a menos que lo enlacemos con group_by(). Esto cambia la unidad de análisis del conjunto de datos completo a grupos individuales. Luego, cuando uses los verbos dplyr en un data frame agrupado, estos se aplicaran automáticamente “por grupo”. Por ejemplo, si aplicamos exactamente el mismo código a un data frame agrupado por fecha, obtenemos el retraso promedio por fecha:

por_dia <- group_by(vuelos, anio, mes, dia)
summarise(por_dia, atraso = mean(atraso_salida, na.rm = TRUE))
#> # A tibble: 365 x 4
#> # Groups:   anio, mes [12]
#>    anio   mes   dia atraso
#>   <int> <int> <int>  <dbl>
#> 1  2013     1     1  11.5 
#> 2  2013     1     2  13.9 
#> 3  2013     1     3  11.0 
#> 4  2013     1     4   8.95
#> 5  2013     1     5   5.73
#> 6  2013     1     6   7.15
#> # … with 359 more rows
…
Esto se enfoca en las transformaciones, no en lo que se está transformando, lo que hace que el código sea más fácil de leer. Puedes leerlo como una serie de declaraciones imperativas: agrupa, luego resume y por último filtra. Como sugiere esta lectura, una buena forma de pronunciar %>% cuando se lee el código es “y luego”.

Lo que encuentras detrás del código, es que x %>% f(y) se convierte en f(x, y), y x %>% f(y) %>% g(z) se convierte en g(f(x, y), z) y así sucesivamente. Puedes usar el pipe para reescribir múltiples operaciones de forma que puedas leer de izquierda a derecha, de arriba hacia abajo. Usaremos pipes con frecuencia a partir de ahora porque mejora considerablemente la legibilidad del código, y volveremos al tema con más detalle en pipes.

Trabajar con el pipe es uno de los criterios clave para pertenecer al tidyverse. La única excepción es ggplot2: se escribió antes de que se descubriera el pipe. Lamentablemente, la siguiente iteración de ggplot2, ggvis, que sí utiliza el pipe, aún no está lista para la audiencia general.

26.6.2 Valores faltantes

Es posible que te hayas preguntado sobre el argumento na.rm que utilizamos anteriormente. ¿Qué pasa si no lo configuramos?

vuelos %>% 
  group_by(anio, mes, dia) %>% 
  summarise(mean = mean(atraso_salida))
#> # A tibble: 365 x 4
#> # Groups:   anio, mes [12]
#>    anio   mes   dia  mean
#>   <int> <int> <int> <dbl>
#> 1  2013     1     1    NA
#> 2  2013     1     2    NA
#> 3  2013     1     3    NA
#> 4  2013     1     4    NA
#> 5  2013     1     5    NA
#> 6  2013     1     6    NA
#> # … with 359 more rows

¡Obtenemos muchos valores faltantes! Esto se debe a que las funciones de agregación obedecen la regla habitual de valores faltantes: si hay algún valor faltante en el input, el output será un valor faltante. Afortunadamente, todas las funciones de agregación tienen un argumento na.rm que elimina los valores faltantes antes del cálculo:

vuelos %>% 
  group_by(anio, mes, dia) %>% 
  summarise(mean = mean(atraso_salida, na.rm = TRUE))
#> # A tibble: 365 x 4
#> # Groups:   anio, mes [12]
#>    anio   mes   dia  mean
#>   <int> <int> <int> <dbl>
#> 1  2013     1     1 11.5 
#> 2  2013     1     2 13.9 
#> 3  2013     1     3 11.0 
#> 4  2013     1     4  8.95
#> 5  2013     1     5  5.73
#> 6  2013     1     6  7.15
#> # … with 359 more rows

En este caso, donde los valores faltantes representan vuelos cancelados, también podríamos abordar el problema eliminando primero los vuelos cancelados. Guardaremos este conjunto de datos para poder reutilizarlo en los siguientes ejemplos.

no_cancelados <- vuelos %>% 
  filter(!is.na(atraso_salida), !is.na(atraso_llegada))

no_cancelados %>% 
  group_by(anio, mes, dia) %>% 
  summarise(mean = mean(atraso_salida))
#> # A tibble: 365 x 4
#> # Groups:   anio, mes [12]
#>    anio   mes   dia  mean
#>   <int> <int> <int> <dbl>
#> 1  2013     1     1 11.4 
#> 2  2013     1     2 13.7 
#> 3  2013     1     3 10.9 
#> 4  2013     1     4  8.97
#> 5  2013     1     5  5.73
#> 6  2013     1     6  7.15
#> # … with 359 more rows
…
Puedes encontrar una buena explicación de este problema en http://varianceexplained.org/r/empirical_bayes_baseball/ y http://www.evanmiller.org/how-not-to-sort-by-average-rating.html.

26.6.4 Funciones de resumen útiles

Solo el uso de medias, conteos y sumas puede llevarte muy lejos, pero R proporciona muchas otras funciones de resumen útiles:

Medidas de centralidad: hemos usado mean(x), pero median(x) también resulta muy útil. La media es la suma dividida por el número de observaciones; la mediana es un valor donde el 50% de x está por encima de él, y el 50% está por debajo. A veces es útil combinar agregación con un subconjunto lógico. Todavía no hemos hablado sobre este tipo de subconjuntos, pero aprenderás más al respecto en [subsetting].

no_cancelados %>% 
  group_by(anio, mes, dia) %>% 
  summarise(
    prom_atraso1 = mean(atraso_llegada),
    prom_atraso2 = mean(atraso_llegada[atraso_llegada > 0]) # el promedio de atrasos positivos
  )
#> # A tibble: 365 x 5
#> # Groups:   anio, mes [12]
#>    anio   mes   dia prom_atraso1 prom_atraso2
#>   <int> <int> <int>        <dbl>        <dbl>
#> 1  2013     1     1        12.7          32.5
#> 2  2013     1     2        12.7          32.0
#> 3  2013     1     3         5.73         27.7
#> 4  2013     1     4        -1.93         28.3
#> 5  2013     1     5        -1.53         22.6
#> 6  2013     1     6         4.24         24.4
#> # … with 359 more rows

Medidas de dispersión: sd(x), IQR(x), mad(x). La raíz de la desviación media al cuadrado o desviación estándar o SD para abreviar, es una medida estándar de dispersión. El rango intercuartil IQR() y la desviación media absoluta mad(x) son medidas robustas equivalentes que pueden ser más útiles si tienes valores atípicos.

# ¿Por qué la distancia a algunos destinos es más variable que la de otros?
no_cancelados %>% 
  group_by(destino) %>% 
  summarise(distancia_sd = sd(distancia)) %>% 
  arrange(desc(distancia_sd))
#> # A tibble: 104 x 2
#>   destino distancia_sd
#>   <chr>          <dbl>
#> 1 EGE            10.5 
#> 2 SAN            10.4 
#> 3 SFO            10.2 
#> 4 HNL            10.0 
#> 5 SEA             9.98
#> 6 LAS             9.91
#> # … with 98 more rows

Medidas de rango: min(x), quantile(x, 0.25), max(x). Los cuantiles son una generalización de la mediana. Por ejemplo, quantile(x, 0.25) encontrará un valor de x que sea mayor a 25% de los valores, y menor que el 75% restante.

# ¿Cuándo salen los primeros y los últimos vuelos cada día?
no_cancelados %>% 
  group_by(anio, mes, dia) %>% 
  summarise(
    primero = min(horario_salida),
    ultimo = max(horario_salida)
  )
#> # A tibble: 365 x 5
#> # Groups:   anio, mes [12]
#>    anio   mes   dia primero ultimo
#>   <int> <int> <int>   <int>  <int>
#> 1  2013     1     1     517   2356
#> 2  2013     1     2      42   2354
#> 3  2013     1     3      32   2349
#> 4  2013     1     4      25   2358
#> 5  2013     1     5      14   2357
#> 6  2013     1     6      16   2355
#> # … with 359 more rows

Medidas de posición: first(x), nth(x, 2), last(x). Estas trabajan de forma similar a x[1], x[2] y x[length (x)], pero te permiten establecer un valor predeterminado en el caso de que esa posición no exista (es decir, si estás tratando de obtener el tercer elemento de un grupo que solo tiene dos elementos). Por ejemplo, podemos encontrar la primera y última salida para cada día:

no_cancelados %>% 
  group_by(anio, mes, dia) %>% 
  summarise(
    primera_salida = first(horario_salida), 
    ultima_salida = last(horario_salida)
  )
#> # A tibble: 365 x 5
#> # Groups:   anio, mes [12]
#>    anio   mes   dia primera_salida ultima_salida
#>   <int> <int> <int>          <int>         <int>
#> 1  2013     1     1            517          2356
#> 2  2013     1     2             42          2354
#> 3  2013     1     3             32          2349
#> 4  2013     1     4             25          2358
#> 5  2013     1     5             14          2357
#> 6  2013     1     6             16          2355
#> # … with 359 more rows

Estas funciones son complementarias al filtrado en rangos. El filtrado te proporciona todas las variables, con cada observación en una fila separada:

no_cancelados %>% 
  group_by(anio, mes, dia) %>% 
  mutate(r = min_rank(desc(horario_salida))) %>% 
  filter(r %in% range(r))
#> # A tibble: 770 x 20
#> # Groups:   anio, mes, dia [365]
#>    anio   mes   dia horario_salida salida_programa… atraso_salida
#>   <int> <int> <int>          <int>            <int>         <dbl>
#> 1  2013     1     1            517              515             2
#> 2  2013     1     1           2356             2359            -3
#> 3  2013     1     2             42             2359            43
#> 4  2013     1     2           2354             2359            -5
#> 5  2013     1     3             32             2359            33
#> 6  2013     1     3           2349             2359           -10
#> # … with 764 more rows, and 14 more variables: horario_llegada <int>,
#> #   llegada_programada <int>, atraso_llegada <dbl>, aerolinea <chr>,
#> #   vuelo <int>, codigo_cola <chr>, origen <chr>, destino <chr>,
#> #   tiempo_vuelo <dbl>, distancia <dbl>, hora <dbl>, minuto <dbl>,
#> #   fecha_hora <dttm>, r <int>

Conteos: has visto n(), que no toma argumentos, y devuelve el tamaño del grupo actual. Para contar la cantidad de valores no faltantes, usa sum(!is.na (x)). Para contar la cantidad de valores distintos (únicos), usa n_distinct(x).

# ¿Qué destinos tienen la mayoría de las aerolíneas?
no_cancelados %>% 
  group_by(destino) %>% 
  summarise(aerolineas = n_distinct(aerolinea)) %>% 
  arrange(desc(aerolineas))
#> # A tibble: 104 x 2
#>   destino aerolineas
#>   <chr>        <int>
#> 1 ATL              7
#> 2 BOS              7
#> 3 CLT              7
#> 4 ORD              7
#> 5 TPA              7
#> 6 AUS              6
#> # … with 98 more rows

Los conteos son tan útiles que dplyr proporciona un ayudante simple si todo lo que quieres es un conteo:

no_cancelados %>% 
  count(destino)
#> # A tibble: 104 x 2
#>   destino     n
#>   <chr>   <int>
#> 1 ABQ       254
#> 2 ACK       264
#> 3 ALB       418
#> 4 ANC         8
#> 5 ATL     16837
#> 6 AUS      2411
#> # … with 98 more rows

Opcionalmente puedes proporcionar una variable de ponderación. Por ejemplo, podrías usar esto para “contar” (sumar) el número total de millas que un avión voló:

no_cancelados %>% 
  count(codigo_cola, wt = distancia)
#> # A tibble: 4,037 x 2
#>   codigo_cola      n
#>   <chr>        <dbl>
#> 1 D942DN        3418
#> 2 N0EGMQ      239143
#> 3 N10156      109664
#> 4 N102UW       25722
#> 5 N103US       24619
#> 6 N104UW       24616
#> # … with 4,031 more rows

Conteos y proporciones de valores lógicos: sum(x > 10), mean(y == 0).

Cuando se usan con funciones numéricas, TRUE se convierte en 1 y FALSE en 0. Esto hace que sum() y mean() sean muy útiles: sum(x) te da la cantidad de TRUEs en x, y mean(x) te da la proporción.

# ¿Cuántos vuelos salieron antes de las 5 a.m.? 
# (estos generalmente son vuelos demorados del día anterior)
no_cancelados %>% 
  group_by(anio, mes, dia) %>% 
  summarise(n_temprano = sum(horario_salida < 500))
#> # A tibble: 365 x 4
#> # Groups:   anio, mes [12]
#>    anio   mes   dia n_temprano
#>   <int> <int> <int>      <int>
#> 1  2013     1     1          0
#> 2  2013     1     2          3
#> 3  2013     1     3          4
#> 4  2013     1     4          3
#> 5  2013     1     5          3
#> 6  2013     1     6          2
#> # … with 359 more rows

# ¿Qué proporción de vuelos se retrasan más de una hora?
no_cancelados %>% 
  group_by(anio, mes, dia) %>% 
  summarise(hora_perc = mean(atraso_llegada > 60))
#> # A tibble: 365 x 4
#> # Groups:   anio, mes [12]
#>    anio   mes   dia hora_perc
#>   <int> <int> <int>     <dbl>
#> 1  2013     1     1    0.0722
#> 2  2013     1     2    0.0851
#> 3  2013     1     3    0.0567
#> 4  2013     1     4    0.0396
#> 5  2013     1     5    0.0349
#> 6  2013     1     6    0.0470
#> # … with 359 more rows

26.6.5 Agrupación por múltiples variables

Cuando agrupas por múltiples variables, cada resumen se desprende de un nivel de la agrupación. Eso hace que sea más fácil acumular progresivamente en un conjunto de datos:

diario <- group_by(vuelos, anio, mes, dia)
(por_dia   <- summarise(diario, vuelos = n()))
#> # A tibble: 365 x 4
#> # Groups:   anio, mes [12]
#>    anio   mes   dia vuelos
#>   <int> <int> <int>  <int>
#> 1  2013     1     1    842
#> 2  2013     1     2    943
#> 3  2013     1     3    914
#> 4  2013     1     4    915
#> 5  2013     1     5    720
#> 6  2013     1     6    832
#> # … with 359 more rows
(por_mes <- summarise(por_dia, vuelos = sum(vuelos)))
#> # A tibble: 12 x 3
#> # Groups:   anio [1]
#>    anio   mes vuelos
#>   <int> <int>  <int>
#> 1  2013     1  27004
#> 2  2013     2  24951
#> 3  2013     3  28834
#> 4  2013     4  28330
#> 5  2013     5  28796
#> 6  2013     6  28243
#> # … with 6 more rows
…
¿Qué compañía tiene los peores retrasos? Desafío: ¿puedes desenredar el efecto de malos aeropuertos vs. el efecto de malas aerolíneas? ¿Por qué o por qué no? (Sugerencia: piensa en vuelos %>% group_by(aerolinea, destino) %>% summarise(n()))

¿Qué hace el argumento sort a count(). ¿Cuándo podrías usarlo?

26.7 Transformaciones agrupadas (y filtros)

La agrupación es más útil si se utiliza junto con summarise(), pero también puedes hacer operaciones convenientes con mutate() y filter():

Encuentra los peores miembros de cada grupo:

vuelos_sml %>% 
  group_by(anio, mes, dia) %>%
  filter(rank(desc(atraso_llegada)) < 10)
#> # A tibble: 3,306 x 7
#> # Groups:   anio, mes, dia [365]
#>    anio   mes   dia atraso_salida atraso_llegada distancia tiempo_vuelo
#>   <int> <int> <int>         <dbl>          <dbl>     <dbl>        <dbl>
#> 1  2013     1     1           853            851       184           41
#> 2  2013     1     1           290            338      1134          213
#> 3  2013     1     1           260            263       266           46
#> 4  2013     1     1           157            174       213           60
#> 5  2013     1     1           216            222       708          121
#> 6  2013     1     1           255            250       589          115
#> # … with 3,300 more rows
…
